{
  "project_info": {
    "project_id": "robot-1252",
    "project_number": "168502033726",
    "name": "robot"
  },
  "client": [
    {
      "client_info": {
        "mobilesdk_app_id": "1:168502033726:android:cf92a495a6b565ac",
        "client_id": "android:net.robot",
        "client_type": 1,
        "android_client_info": {
          "package_name": "net.robot",
          "certificate_hash": []
        }
      },
      "oauth_client": [],
      "api_key": [],
      "services": {
        "analytics_service": {
          "status": 1
        },
        "cloud_messaging_service": {
          "status": 2,
          "apns_config": []
        },
        "appinvite_service": {
          "status": 1,
          "other_platform_oauth_client": []
        },
        "google_signin_service": {
          "status": 1
        },
        "ads_service": {
          "status": 1
        }
      }
    }
  ],
  "client_info": [],
  "ARTIFACT_VERSION": "1"
}